<svg xmlns="http://www.w3.org/2000/svg" width="30" height="30" viewBox="0 0 30 30">
    <g fill="none" fill-rule="evenodd">
        <path fill="#F89029" d="M0 15c0 8.284 6.716 15 15 15 8.284 0 15-6.716 15-15 0-8.284-6.716-15-15-15C6.716 0 0 6.716 0 15z"/>
        <path fill="#FFF" fill-rule="nonzero" d="M21.876 12.89h-.792c-.62 0-1.124-.5-1.124-1.117v-.078C19.96 9.102 17.848 7 15.242 7h-3.524C9.112 7 7 9.102 7 11.695v6.61C7 20.898 9.112 23 11.718 23h6.564C20.888 23 23 20.898 23 18.305V14.01a1.12 1.12 0 0 0-1.124-1.119zm-9.956-1.83h3.76c.508 0 .92.41.92.915a.918.918 0 0 1-.92.915h-3.76a.918.918 0 0 1-.92-.915c0-.505.412-.915.92-.915zm6.24 7.88h-6.24a.918.918 0 0 1-.92-.915c0-.506.412-.916.92-.916h6.24c.508 0 .92.41.92.916a.918.918 0 0 1-.92.915z"/>
    </g>
</svg>
