<svg xmlns="http://www.w3.org/2000/svg" width="18" height="18" viewBox="0 0 18 18">
    <g fill="none" fill-rule="evenodd">
        <path d="M-8-7h36v32H-8z"/>
        <path d="M0-1h20v20H0z"/>
        <path fill="#000" fill-rule="nonzero" d="M16.667 3.167c.46 0 .833.373.833.833v1.667a6.667 6.667 0 0 1-6.667 6.666H6.475c-.763 0-1.43-.518-1.617-1.258L2.667 2.333h-1a.833.833 0 1 1 0-1.666h1.666a.833.833 0 0 1 .834.633l.458 1.867h12.042zM7.5 17.333A1.667 1.667 0 1 1 7.5 14a1.667 1.667 0 0 1 0 3.333zm6.667 0a1.667 1.667 0 1 1 0-3.333 1.667 1.667 0 0 1 0 3.333z"/>
    </g>
</svg>
