<?xml version="1.0" encoding="UTF-8"?>
<svg width="24px" height="24px" viewBox="0 0 24 24" version="1.1" xmlns="http://www.w3.org/2000/svg" xmlns:xlink="http://www.w3.org/1999/xlink">
    <!-- Generator: sketchtool 51.3 (57544) - http://www.bohemiancoding.com/sketch -->
    <title>9B285209-9E5A-4E96-97ED-18DD984DD425</title>
    <desc>Created with sketchtool.</desc>
    <defs></defs>
    <g id="symbol_24px" stroke="none" stroke-width="1" fill="none" fill-rule="evenodd">
        <g id="24px/depth_black/condition">
            <g id="condition">
                <rect id="Rectangle-4" x="0" y="0" width="24" height="24"></rect>
                <g id="Group" transform="translate(1.000000, 3.000000)">
                    <path d="M5.65033333,5.95833333 L2.44444444,5.95833333 L2.44444444,15.8942391 C2.44444444,16.5530555 2.992,17.086667 3.66666667,17.086667 L5.65033333,17.086667 L5.65033333,5.95833333 Z" id="Fill-1" fill="#EAEAEA"></path>
                    <path d="M12.4729537,5.61111111 L13.8867695,1.36966389 C13.9548265,1.16549283 14.1458959,1.02777778 14.3611111,1.02777778 L14.9722222,1.02777778 C15.1874374,1.02777778 15.3785068,1.16549283 15.4465639,1.36966389 L16.8603796,5.61111111 L19.5555556,5.61111111 C19.8316979,5.61111111 20.0555556,5.83496874 20.0555556,6.11111111 L20.0555556,15.1111111 C20.0555556,16.491823 18.9362674,17.6111111 17.5555556,17.6111111 L4.44444444,17.6111111 C3.06373257,17.6111111 1.94444444,16.491823 1.94444444,15.1111111 L1.94444444,6.11111111 C1.94444444,5.83496874 2.16830207,5.61111111 2.44444444,5.61111111 L12.4729537,5.61111111 Z M14.6666667,2.19224994 L13.307675,6.26922499 C13.239618,6.47339606 13.0485485,6.61111111 12.8333333,6.61111111 L2.94444444,6.61111111 L2.94444444,15.1111111 C2.94444444,15.9395382 3.61601732,16.6111111 4.44444444,16.6111111 L17.5555556,16.6111111 C18.3839827,16.6111111 19.0555556,15.9395382 19.0555556,15.1111111 L19.0555556,6.61111111 L16.5,6.61111111 C16.2847848,6.61111111 16.0937154,6.47339606 16.0256584,6.26922499 L14.6666667,2.19224994 Z M14.4978806,1.68589166 L14.6666667,2.19224994 L14.8354528,1.68589166 L14.3611111,2.02777778 L14.9722222,2.02777778 L14.4978806,1.68589166 Z" id="Combined-Shape" fill="#666666" fill-rule="nonzero"></path>
                    <path d="M2.80482405,1.11111111 L1.30482405,5.61111111 L12.4729537,5.61111111 L13.9729537,1.11111111 L2.80482405,1.11111111 Z M2.44444444,0.111111111 L14.6666667,0.111111111 C15.0079455,0.111111111 15.2489302,0.445459437 15.1410083,0.769224994 L13.307675,6.26922499 C13.239618,6.47339606 13.0485485,6.61111111 12.8333333,6.61111111 L0.611111111,6.61111111 C0.269832249,6.61111111 0.0288476098,6.27676278 0.136769462,5.95299723 L1.9701028,0.452997228 C2.03815982,0.248826159 2.22922924,0.111111111 2.44444444,0.111111111 Z" id="Rectangle-2" fill="#666666" fill-rule="nonzero"></path>
                    <path d="M16.8603796,5.61111111 L20.6951759,5.61111111 L19.1951759,1.11111111 L15.3603796,1.11111111 L16.8603796,5.61111111 Z M14.6666667,0.111111111 L19.5555556,0.111111111 C19.7707708,0.111111111 19.9618402,0.248826159 20.0298972,0.452997228 L21.8632305,5.95299723 C21.9711524,6.27676278 21.7301678,6.61111111 21.3888889,6.61111111 L16.5,6.61111111 C16.2847848,6.61111111 16.0937154,6.47339606 16.0256584,6.26922499 L14.192325,0.769224994 C14.0844032,0.445459437 14.3253878,0.111111111 14.6666667,0.111111111 Z" id="Rectangle-3" fill="#666666" fill-rule="nonzero"></path>
                    <path d="M4.58333333,12.9027778 L10.6944444,12.9027778 C10.9015512,12.9027778 11.0694444,12.7348846 11.0694444,12.5277778 C11.0694444,12.320671 10.9015512,12.1527778 10.6944444,12.1527778 L4.58333333,12.1527778 C4.37622655,12.1527778 4.20833333,12.320671 4.20833333,12.5277778 C4.20833333,12.7348846 4.37622655,12.9027778 4.58333333,12.9027778 Z" id="Line" fill="#666666" fill-rule="nonzero"></path>
                    <path d="M4.58333333,14.7361111 L7.63888889,14.7361111 C7.84599567,14.7361111 8.01388889,14.5682179 8.01388889,14.3611111 C8.01388889,14.1540043 7.84599567,13.9861111 7.63888889,13.9861111 L4.58333333,13.9861111 C4.37622655,13.9861111 4.20833333,14.1540043 4.20833333,14.3611111 C4.20833333,14.5682179 4.37622655,14.7361111 4.58333333,14.7361111 Z" id="Line" fill="#666666" fill-rule="nonzero"></path>
                    <path d="M14.1666667,0.611111111 L14.1666667,17.1111111 C14.1666667,17.3872535 14.3905243,17.6111111 14.6666667,17.6111111 C14.942809,17.6111111 15.1666667,17.3872535 15.1666667,17.1111111 L15.1666667,0.611111111 C15.1666667,0.334968736 14.942809,0.111111111 14.6666667,0.111111111 C14.3905243,0.111111111 14.1666667,0.334968736 14.1666667,0.611111111 Z" id="Line" fill="#666666" fill-rule="nonzero"></path>
                </g>
            </g>
        </g>
    </g>
</svg>