<svg xmlns="http://www.w3.org/2000/svg" width="30" height="30" viewBox="0 0 30 30">
    <g fill="none" fill-rule="evenodd">
        <path fill="#3B5998" d="M15 30c8.284 0 15-6.716 15-15 0-8.284-6.716-15-15-15C6.716 0 0 6.716 0 15c0 8.284 6.716 15 15 15z"/>
        <path fill="#FFF" d="M18.771 15.587h-2.677v9.806H12.04v-9.806h-1.928v-3.446h1.928v-2.23c0-1.595.758-4.092 4.092-4.092l3.003.013v3.345h-2.179c-.357 0-.86.178-.86.939v2.028h3.03l-.354 3.443z"/>
    </g>
</svg>
