<svg xmlns="http://www.w3.org/2000/svg" width="30" height="30" viewBox="0 0 30 30">
    <g fill="none" fill-rule="evenodd">
        <path fill="#DC4E41" d="M15 30c8.284 0 15-6.716 15-15 0-8.284-6.716-15-15-15C6.716 0 0 6.716 0 15c0 8.284 6.716 15 15 15z"/>
        <path fill="#DC4E41" d="M5.222 15.672c-.053 2.58 1.725 5.044 4.17 5.847 2.303.774 5.135.195 6.668-1.777 1.119-1.383 1.373-3.225 1.252-4.947-1.973-.017-3.945-.011-5.915-.008-.003.702 0 1.402.003 2.105 1.181.032 2.363.018 3.544.041-.298 1.022-.978 1.973-2.008 2.342-1.99.877-4.53-.269-5.156-2.357-.756-1.999.481-4.412 2.525-4.993 1.267-.446 2.572.056 3.656.715a27.992 27.992 0 0 0 1.568-1.619c-1.232-1.03-2.815-1.662-4.442-1.523-3.192.038-5.986 2.985-5.865 6.174zM21.151 13.014c-.006.587-.012 1.178-.015 1.766-.59.005-1.178.008-1.766.011v1.76c.588.003 1.179.006 1.766.012.006.588.006 1.175.012 1.766.585 0 1.172-.003 1.76 0 .003-.59.006-1.178.012-1.769l1.766-.008v-1.76c-.588-.003-1.178-.006-1.766-.012l-.012-1.766H21.15z"/>
        <path fill="#FFF" d="M5.222 15.671c-.12-3.189 2.673-6.136 5.865-6.174 1.627-.139 3.21.493 4.441 1.523a28.028 28.028 0 0 1-1.568 1.619c-1.084-.659-2.389-1.16-3.656-.715-2.043.582-3.28 2.994-2.524 4.993.626 2.088 3.165 3.234 5.155 2.357 1.03-.37 1.71-1.32 2.008-2.342-1.18-.023-2.362-.008-3.543-.041-.003-.703-.006-1.403-.003-2.105 1.97-.003 3.942-.01 5.915.008.12 1.722-.133 3.565-1.252 4.947-1.533 1.972-4.365 2.55-6.668 1.777-2.445-.803-4.223-3.266-4.17-5.847zM21.151 13.014h1.757l.012 1.766c.587.005 1.178.008 1.766.011v1.76l-1.766.01c-.006.59-.009 1.177-.012 1.768-.588-.003-1.175 0-1.76 0-.006-.59-.006-1.178-.012-1.766-.587-.006-1.178-.009-1.766-.012v-1.76a348.57 348.57 0 0 0 1.766-.012c.003-.587.009-1.178.015-1.765z"/>
    </g>
</svg>
