<?xml version="1.0" encoding="UTF-8"?>
<svg width="24px" height="24px" viewBox="0 0 24 24" version="1.1" xmlns="http://www.w3.org/2000/svg" xmlns:xlink="http://www.w3.org/1999/xlink">
    <!-- Generator: sketchtool 51.3 (57544) - http://www.bohemiancoding.com/sketch -->
    <title>1C1E2AD3-120C-42A6-B19A-2C7ECF1643B7</title>
    <desc>Created with sketchtool.</desc>
    <defs></defs>
    <g id="symbol_24px" stroke="none" stroke-width="1" fill="none" fill-rule="evenodd">
        <g id="24px/depth_black/hotlist">
            <g id="hotlist">
                <rect id="Rectangle-path" x="0" y="0" width="24" height="24"></rect>
                <g id="stroke" transform="translate(2.000000, 0.000000)">
                    <path d="M7.28906032,3.44327644 L0.912060323,14.9042764 C0.572060323,15.5132764 0.483060323,16.0612764 0.646060323,16.5312764 C0.832060323,17.0622764 1.28206032,17.2972764 1.38606032,17.3452764 L5.80906032,19.8102764 L7.28906032,20.6322764 L7.28906032,3.44327644 Z" id="Fill-1" fill="#EAEAEA"></path>
                    <path d="M11.0195603,22.9998764 C10.5896415,22.9998764 10.2267824,22.8632628 9.99173047,22.7069504 L5.56515219,20.2476286 L1.1743585,17.7990804 C0.764923626,17.6082758 0.370974021,17.2606732 0.174271183,16.6950196 C-0.0408171529,16.0761458 0.0719987297,15.3849499 0.475629616,14.6607889 L6.91543875,3.08580698 C7.4831317,2.09234432 8.45603728,1.17287644 9.86656032,1.17287644 C10.4846573,1.17287644 11.4001972,1.14597807 12.5155124,1.10066362 C13.2221707,1.07195261 13.9224972,1.03930484 14.2779414,1.02393788 C14.7672423,0.947047742 15.3873029,1.02153945 16.0554335,1.39282652 C16.7235876,1.76412664 17.1135032,2.25159641 17.2844627,2.6625436 C17.4649437,2.9900294 17.8289601,3.64270813 18.1826135,4.26779022 C18.7381077,5.24962579 19.2008817,6.0460327 19.5039381,6.53248366 C20.2513032,7.73208186 19.9819539,9.05070002 19.4354697,10.0550024 L12.9953008,21.6283056 C12.5918951,22.352063 12.0652446,22.8105437 11.4190396,22.9570513 C11.2834612,22.9857313 11.1507667,22.9998764 11.0195603,22.9998764 Z M11.0195603,21.9998764 C11.0805445,21.9998764 11.1439162,21.9931211 11.2049671,21.9802607 C11.5372648,21.9048942 11.8461936,21.6359532 12.121651,21.1417505 L18.5593659,9.57290303 C18.945507,8.86323832 19.1510194,7.85713844 18.6551791,7.06126366 C18.3424386,6.55926808 17.874432,5.75385635 17.3122572,4.76021267 C16.9566755,4.13172234 16.590861,3.47581957 16.3860767,3.09869644 C16.2732001,2.83189723 16.022623,2.51862747 15.5696872,2.26692637 C15.116257,2.01495054 14.7178269,1.96708466 14.3810175,2.01722796 C13.9701928,2.03817196 13.2665142,2.07097599 12.5561082,2.09983927 C11.4278514,2.14567952 10.50215,2.17287644 9.90456032,2.17287644 C8.93054923,2.17287644 8.18768784,2.87493551 7.78649103,3.576964 L1.34930082,15.1473056 C1.07374932,15.6416774 1.0076359,16.0467385 1.1188207,16.3666506 C1.21040313,16.6300119 1.40882528,16.8050903 1.62896845,16.9091242 L6.05139017,19.3738025 L10.5093686,21.8521679 C10.6272657,21.9297318 10.8135767,21.9998764 11.0195603,21.9998764 Z" id="Stroke-3" fill="#666666" fill-rule="nonzero"></path>
                    <path d="M13.4872603,8.53847644 C13.0631377,8.53847644 12.6457191,8.43006772 12.2699277,8.22116506 C11.0607048,7.54832894 10.6249042,6.01774781 11.2984363,4.80938742 C11.9700439,3.60025846 13.5005019,3.16402513 14.7095929,3.83678783 C15.918559,4.50948103 16.3546547,6.03982028 15.6819761,7.24876014 C15.3565854,7.83375857 14.8216109,8.25791031 14.1792615,8.44076626 C13.9536637,8.50588727 13.7207993,8.53847644 13.4872603,8.53847644 Z M13.4872603,7.78847644 C13.6507941,7.78847644 13.8136308,7.7656876 13.9725877,7.71980579 C14.4248143,7.59106973 14.797887,7.29528103 15.0265717,6.88414387 C15.4978835,6.03710094 15.19193,4.96345424 14.3449277,4.49216506 C13.4978822,4.02085176 12.4244009,4.32683096 11.9538135,5.17405228 C11.4818038,6.02086895 11.7874795,7.09443679 12.6344628,7.56571549 C12.8987574,7.712637 13.1907708,7.78847644 13.4872603,7.78847644 Z" id="Stroke-5" fill="#666666" fill-rule="nonzero"></path>
                </g>
            </g>
        </g>
    </g>
</svg>