<?xml version="1.0" encoding="UTF-8"?>
<svg width="24px" height="24px" viewBox="0 0 24 24" version="1.1" xmlns="http://www.w3.org/2000/svg" xmlns:xlink="http://www.w3.org/1999/xlink">
    <!-- Generator: sketchtool 51.3 (57544) - http://www.bohemiancoding.com/sketch -->
    <title>2735EDF5-146A-4686-8E97-671902876403</title>
    <desc>Created with sketchtool.</desc>
    <defs></defs>
    <g id="symbol_24px" stroke="none" stroke-width="1" fill="none" fill-rule="evenodd">
        <g id="24px/depth_black/review">
            <g id="review">
                <rect id="Rectangle-path" x="0" y="0" width="24" height="24"></rect>
                <g id="Group-6" transform="translate(2.000000, 2.000000)">
                    <path d="M6.28549281,5.43468129 L7.12145534,6.18008916 C7.23324723,6.27965385 7.28215621,6.43162094 7.24634783,6.58184124 C7.21665313,6.71284741 6.89961835,8.21155741 6.62013857,9.54607306 C6.59481077,9.66747205 6.64284636,9.79149123 6.74677786,9.86485459 C6.80180045,9.90415652 6.86817686,9.92511739 6.93455325,9.92511739 C6.98957585,9.92511739 7.04459844,9.91114344 7.09438074,9.88406892 L9.79223347,8.37575166 C9.85561914,8.34078027 9.92775678,8.32331282 9.9999948,8.32334929 L9.9999948,19.6524325 L3.36363081,19.6524325 C1.70677657,19.6524325 0.363630815,18.3092868 0.363630815,16.6524325 L0.363630815,8.43468129 C0.363630815,6.77782704 1.70677657,5.43468129 3.36363081,5.43468129 L6.28549281,5.43468129 Z" id="Combined-Shape" fill="#c8e4ff"></path>
                    <path d="M15.1757115,4.13115342 L12.879611,6.17921577 C12.7695658,6.27616034 12.7206569,6.42463394 12.7503516,6.56699393 L13.3783076,9.54432627 C13.4045088,9.66572526 13.3555999,9.78974444 13.2534151,9.86310792 C13.1503569,9.93559789 13.0141106,9.94258493 12.9040654,9.88232213 L10.2079595,8.37575166 C10.0804469,8.30588176 9.91887272,8.30588176 9.79223347,8.37575166 L7.09438074,9.88406892 C7.04459844,9.91114344 6.98957585,9.92511739 6.93455325,9.92511739 C6.86817686,9.92511739 6.80180045,9.90415652 6.74677786,9.86485459 C6.64284636,9.79149123 6.59481077,9.66747205 6.62013857,9.54607306 C6.89961835,8.21155741 7.21665313,6.71284741 7.24634783,6.58184124 C7.28215621,6.43162094 7.23324723,6.27965385 7.12145534,6.18008916 L4.82360801,4.13115342 C4.73103032,4.04730953 4.69609542,3.91892353 4.73539722,3.80101805 C4.7746991,3.68223915 4.88037731,3.59839526 5.0052698,3.58529465 L8.09352076,3.24991898 C8.23762746,3.23419819 8.36688684,3.14162059 8.428023,3.0097411 L9.70576943,0.236778228 C9.80970089,0.0114477046 10.1887453,0.0114477046 10.2918034,0.236778228 L11.5721699,3.0106145 C11.6341795,3.14424069 11.7608187,3.23507159 11.908419,3.24991898 L14.9940497,3.58529465 C15.1198156,3.59839526 15.2263672,3.68223915 15.2656692,3.80101805 C15.3032242,3.91892353 15.2682892,4.04730953 15.1757115,4.13115342 Z" id="Shape" stroke="#005fba" stroke-linecap="round" stroke-linejoin="round"></path>
                    <path d="M3.98851799,12.6735618 L15.9824632,12.6735618" id="Line" stroke="#005fba" stroke-linecap="round" stroke-linejoin="round"></path>
                    <path d="M3.98851799,15.4008345 L15.9824632,15.4008345" id="Line-Copy" stroke="#005fba" stroke-linecap="round" stroke-linejoin="round"></path>
                    <path d="M15.809992,5.39084695 C16.036565,5.39084695 16.4982158,5.39084695 17.1949444,5.39084695 C18.6384159,5.39084695 19.8085808,6.47686513 19.8085808,7.81653645 L19.8085808,17.226743 C19.8085808,18.5664143 18.6384159,19.6524325 17.1949444,19.6524325 L2.90013169,19.6524325 C1.45666018,19.6524325 0.286495324,18.5664143 0.286495324,17.226743 L0.286495324,7.81653645 C0.286495324,6.47686513 1.45666018,5.39084695 2.90013169,5.39084695 L4.16753596,5.39084695" id="Rectangle-2" stroke="#005fba" stroke-linecap="round" stroke-linejoin="round"></path>
                    <path d="" id="Path-2" stroke="#979797"></path>
                </g>
            </g>
        </g>
    </g>
</svg>