<?xml version="1.0" encoding="UTF-8"?>
<svg width="24px" height="24px" viewBox="0 0 24 24" version="1.1" xmlns="http://www.w3.org/2000/svg" xmlns:xlink="http://www.w3.org/1999/xlink">
    <!-- Generator: sketchtool 51.3 (57544) - http://www.bohemiancoding.com/sketch -->
    <title>084928EE-47E6-4E5A-B9FA-ECB340893434</title>
    <desc>Created with sketchtool.</desc>
    <defs></defs>
    <g id="symbol_24px" stroke="none" stroke-width="1" fill="none" fill-rule="evenodd">
        <g id="24px/depth_black/weight">
            <g id="weight">
                <rect id="Rectangle-path" x="0" y="0" width="24" height="24"></rect>
                <g id="Group" transform="translate(2.000000, 0.000000)" fill-rule="nonzero">
                    <path d="M4.95396595,13.8654645 C4.95396595,11.2433992 7.0793971,9.11729058 9.70213986,9.11729058 L9.70213986,7.2662616 L3.92614348,7.2662616 C3.17814348,7.2662616 2.54532464,7.92008405 2.44640435,8.79478334 L1.35218333,18.4706783 C1.23293696,19.5262797 1.92876667,20.4646674 2.83192247,20.4646674 L9.70213986,20.4646674 L9.70213986,18.6136384 C7.0793971,18.6136384 4.95396595,16.4882073 4.95396595,13.8654645" id="Shape" fill="#EAEAEA"></path>
                    <path d="M16.5720185,19.9644641 C17.1536786,19.9644641 17.6428256,19.3054637 17.5549279,18.5273685 L16.4600261,8.85076728 C16.388086,8.21464028 15.9543743,7.76673587 15.4771199,7.76673587 L3.92648225,7.76673587 C3.44962797,7.76673587 3.01548158,8.21494538 2.94357672,8.85076175 L1.84932635,18.527593 C1.76097067,19.3053227 2.25037478,19.9644641 2.83226123,19.9644641 L16.5720185,19.9644641 Z M16.5720185,20.9644641 L2.83226123,20.9644641 C1.60756673,20.9644641 0.704261451,19.7478705 0.855688505,18.4149709 L1.94991014,8.73839295 C2.07582313,7.62501161 2.90716942,6.76673587 3.92648225,6.76673587 L15.4771199,6.76673587 C16.496913,6.76673587 17.3277507,7.6247618 17.4536887,8.73836411 L18.5485975,18.4150268 C18.6992075,19.7482679 17.7964785,20.9644641 16.5720185,20.9644641 Z" id="Shape" fill="#666666"></path>
                    <path d="M4.22193655,21.8409565 L3.57304042,20.2730572 C3.46744157,20.0179034 3.17499372,19.8966651 2.91983985,20.0022639 C2.66468599,20.1078628 2.54344769,20.4003106 2.64904654,20.6554645 L3.42574219,22.5321601 C3.50309764,22.7190707 3.6854536,22.8409565 3.88773913,22.8409565 L15.5161739,22.8409565 C15.7184594,22.8409565 15.9008154,22.7190707 15.9781709,22.5321601 L16.7548665,20.6554645 C16.8604654,20.4003106 16.7392271,20.1078628 16.4840732,20.0022639 C16.2289193,19.8966651 15.9364715,20.0179034 15.8308726,20.2730572 L15.1819765,21.8409565 L4.22193655,21.8409565 Z" id="Shape" fill="#666666"></path>
                    <path d="M1.85972572,0.838632609 L17.6822293,0.838632609 C18.4224274,0.838632609 18.824879,1.6872932 18.379401,2.26995989 C16.4101728,4.84236911 13.4720027,6.04342247 9.7706388,6.04342247 C6.06959534,6.04342247 3.13096849,4.84218239 1.16236843,2.26971721 C0.717076037,1.68729324 1.11952772,0.838632609 1.85972572,0.838632609 Z M9.7706388,5.04342247 C13.0941424,5.04342247 15.6860242,4.01909244 17.4465738,1.83863261 L2.09534385,1.83863261 C3.85536339,4.01898967 6.44757255,5.04342247 9.7706388,5.04342247 Z" id="Path" fill="#666666"></path>
                    <path d="M13.9500427,13.8654645 C13.9500427,11.5195416 12.0477917,9.61729058 9.70186884,9.61729058 C7.35594599,9.61729058 5.45369492,11.5195416 5.45369492,13.8654645 C5.45369492,16.2118199 7.35570092,18.1136384 9.70186884,18.1136384 C12.0480367,18.1136384 13.9500427,16.2118199 13.9500427,13.8654645 Z M14.9500427,13.8654645 C14.9500427,16.7641267 12.6002994,19.1136384 9.70186884,19.1136384 C6.80343824,19.1136384 4.45369492,16.7641267 4.45369492,13.8654645 C4.45369492,10.9672569 6.80366124,8.61729058 9.70186884,8.61729058 C12.6000764,8.61729058 14.9500427,10.9672569 14.9500427,13.8654645 Z" id="Path" fill="#666666"></path>
                    <path d="M9.77084203,14.3654645 L12.5060558,14.3654645 C12.7821981,14.3654645 13.0060558,14.1416068 13.0060558,13.8654645 C13.0060558,13.5893221 12.7821981,13.3654645 12.5060558,13.3654645 L9.77084203,13.3654645 C9.49469966,13.3654645 9.27084203,13.5893221 9.27084203,13.8654645 C9.27084203,14.1416068 9.49469966,14.3654645 9.77084203,14.3654645 Z" id="Path" fill="#666666"></path>
                    <path d="M10.5225007,13.8654645 C10.5225007,14.3187362 10.1552761,14.6859609 9.70200435,14.6859609 C9.24873261,14.6859609 8.88150797,14.3187362 8.88150797,13.8654645 C8.88150797,13.4121927 9.24873261,13.0449681 9.70200435,13.0449681 C10.1552761,13.0449681 10.5225007,13.4121927 10.5225007,13.8654645" id="Shape" fill="#666666"></path>
                </g>
            </g>
        </g>
    </g>
</svg>